…
      -- Inputs 
      Number of variables by role
      outcome:     3
      predictor: 101
      
      -- Operations 
      * Collate wide analytical measurements: x_001:x_100

---

    Code
      print(summary(rec_1))
    Output
      # A tibble: 104 x 4
         variable    type      role      source  
         <chr>       <list>    <chr>     <chr>   
       1 .sample_num <chr [2]> predictor original
       2 x_001       <chr [2]> predictor original
       3 x_002       <chr [2]> predictor original
       4 x_003       <chr [2]> predictor original
       5 x_004       <chr [2]> predictor original
       6 x_005       <chr [2]> predictor original
       7 x_006       <chr [2]> predictor original
       8 x_007       <chr [2]> predictor original
       9 x_008       <chr [2]> predictor original
      10 x_009       <chr [2]> predictor original
      # i 94 more rows
…
