Internal Class System • measure
…
# After preprocessing, each row's .measures element is a measure_tbl
rec <- recipe(water + fat + protein ~ ., data = meats_long) |>
  update_role(id, new_role = "id") |>
  step_measure_input_long(transmittance, location = vars(channel)) |>
  prep()

result <- bake(rec, new_data = NULL)

# Extract one measurement
one_measurement <- result$.measures[[1]]
one_measurement
#> <measure_tbl [100 x 2]>
#> # A tibble: 100 × 2
#>    location value
#>       <int> <dbl>
#>  1        1  2.62
#>  2        2  2.62
#>  3        3  2.62
#>  4        4  2.62
#>  5        5  2.62
#>  6        6  2.62
#>  7        7  2.62
#>  8        8  2.62
#>  9        9  2.63
#> 10       10  2.63
#> # ℹ 90 more rows
…
measure_list

A list column containing multiple measure_tbl objects -
one per row in your data:

# The .measures column itself is a measure_list
class(result$.measures)
#> [1] "measure_list"  "vctrs_list_of" "vctrs_vctr"    "list"
is_measure_list(result$.measures)
#> [1] TRUE

# Nice printing in tibbles
result
#> # A tibble: 215 × 6
#>       id water   fat protein .measures channel    
#>    <int> <dbl> <dbl>   <dbl>    <meas> <list>     
#>  1     1  60.5  22.5    16.7 [100 × 2] <int [100]>
#>  2     2  46    40.1    13.5 [100 × 2] <int [100]>
#>  3     3  71     8.4    20.5 [100 × 2] <int [100]>
#>  4     4  72.8   5.9    20.7 [100 × 2] <int [100]>
#>  5     5  58.3  25.5    15.5 [100 × 2] <int [100]>
#>  6     6  44    42.7    13.7 [100 × 2] <int [100]>
#>  7     7  44    42.7    13.7 [100 × 2] <int [100]>
#>  8     8  69.3  10.6    19.3 [100 × 2] <int [100]>
#>  9     9  61.4  19.9    17.7 [100 × 2] <int [100]>
#> 10    10  61.4  19.9    17.7 [100 × 2] <int [100]>
#> # ℹ 205 more rows
…
