Getting Started with measure • measure
…
Let’s see this in action with real data.

Example: NIR spectroscopy of meat samples

We’ll use the meats_long dataset included in measure.
This contains NIR (Near-Infrared) transmittance spectra of meat samples,
with the goal of predicting water, fat, and protein content.

data(meats_long)

# Each sample has 100 spectral channels
meats_long
#> # A tibble: 21,500 × 6
#>       id water   fat protein channel transmittance
#>    <int> <dbl> <dbl>   <dbl>   <int>         <dbl>
#>  1     1  60.5  22.5    16.7       1          2.62
#>  2     1  60.5  22.5    16.7       2          2.62
#>  3     1  60.5  22.5    16.7       3          2.62
#>  4     1  60.5  22.5    16.7       4          2.62
#>  5     1  60.5  22.5    16.7       5          2.62
#>  6     1  60.5  22.5    16.7       6          2.62
#>  7     1  60.5  22.5    16.7       7          2.62
#>  8     1  60.5  22.5    16.7       8          2.62
#>  9     1  60.5  22.5    16.7       9          2.63
#> 10     1  60.5  22.5    16.7      10          2.63
#> # ℹ 21,490 more rows
…
After prepping and baking, you’ll see that the original
transmittance and channel columns are replaced
by a .measures column containing nested tibbles:

rec_prepped <- prep(rec)
internal_format <- bake(rec_prepped, new_data = NULL)

# The data now has a .measures list-column
internal_format
#> # A tibble: 215 × 6
#>       id water   fat protein .measures channel    
#>    <int> <dbl> <dbl>   <dbl>    <meas> <list>     
#>  1     1  60.5  22.5    16.7 [100 × 2] <int [100]>
#>  2     2  46    40.1    13.5 [100 × 2] <int [100]>
#>  3     3  71     8.4    20.5 [100 × 2] <int [100]>
#>  4     4  72.8   5.9    20.7 [100 × 2] <int [100]>
#>  5     5  58.3  25.5    15.5 [100 × 2] <int [100]>
#>  6     6  44    42.7    13.7 [100 × 2] <int [100]>
#>  7     7  44    42.7    13.7 [100 × 2] <int [100]>
#>  8     8  69.3  10.6    19.3 [100 × 2] <int [100]>
#>  9     9  61.4  19.9    17.7 [100 × 2] <int [100]>
#> 10    10  61.4  19.9    17.7 [100 × 2] <int [100]>
#> # ℹ 205 more rows

# Each element contains location and value
internal_format$.measures[[1]]
#> <measure_tbl [100 x 2]>
#> # A tibble: 100 × 2
#>    location value
#>       <int> <dbl>
#>  1        1  2.62
#>  2        2  2.62
#>  3        3  2.62
#>  4        4  2.62
#>  5        5  2.62
#>  6        6  2.62
#>  7        7  2.62
#>  8        8  2.62
#>  9        9  2.63
#> 10       10  2.63
#> # ℹ 90 more rows
…
