…
## Inspecting 2D Measurements

Each element of the measure column is a `measure_nd_tbl`:

``` r
# First sample's measurement
m1 <- result$.measures[[1]]
class(m1)
#> [1] "measure_nd_tbl" "measure_tbl"    "tbl_df"         "tbl"           
#> [5] "data.frame"
m1
#> <measure_nd_tbl [40 x 3] time x wavelength>
#> <measure_tbl [40 x 3]>
#> # A tibble: 40 × 3
#>    location_1 location_2 value
#>         <dbl>      <dbl> <dbl>
#>  1          0        254 114. 
#>  2          0        280  94.4
#>  3          0        320 104. 
#>  4          0        350 106. 
#>  5          1        254 104. 
#>  6          1        280  98.9
#>  7          1        320 115. 
#>  8          1        350  99.1
#>  9          2        254 120. 
#> 10          2        280  99.4
#> # ℹ 30 more rows
```
…
The package provides several operations for reducing dimensionality of
nD data.

### Unfolding and Folding

[`measure_unfold()`](https://jameshwade.github.io/measure/dev/reference/measure_unfold.md)
converts nD data to 1D for use with modeling techniques that expect
vectors:

``` r
# Unfold 2D to 1D
m1d <- measure_unfold(m1)
m1d
#> <measure_tbl [40 x 2]>
#> # A tibble: 40 × 2
#>    location value
#>       <int> <dbl>
#>  1        1 114. 
#>  2        2 104. 
#>  3        3 120. 
#>  4        4  86.1
#>  5        5  97.2
#>  6        6  96.9
#>  7        7 119. 
#>  8        8 105. 
#>  9        9 110. 
#> 10       10  92.2
#> # ℹ 30 more rows
…
