Preprocessing Techniques • measure
…
baked_data <- bake(rec_internal, new_data = NULL)

# Prototype your transformation
result <- measure_map(baked_data, ~ {
# Experiment with different approaches
.x$value <- .x$value - median(.x$value)
.x
})

# Check results
result$.measures[[1]]
#> <measure_tbl [100 x 2]>
#> # A tibble: 100 × 2
#>    location  value
#>       <dbl>  <dbl>
#>  1     850  -0.317
#>  2     852. -0.316
#>  3     854. -0.316
#>  4     856. -0.315
#>  5     858. -0.314
#>  6     860. -0.314
#>  7     862. -0.312
#>  8     864. -0.311
#>  9     866. -0.309
#> 10     868. -0.307
#> # ℹ 90 more rows
…
# result$result contains the data with successful transforms
# (failed samples keep their original values)

Understanding your data with measure_summarize()

Before preprocessing, it’s often helpful to compute summary
statistics across samples:

# Compute mean and SD at each wavelength
summary_stats <- measure_summarize(baked_data)
summary_stats
#> # A tibble: 100 × 3
#>    location  mean    sd
#>       <dbl> <dbl> <dbl>
#>  1     850   2.81 0.411
#>  2     852.  2.81 0.413
#>  3     854.  2.81 0.416
#>  4     856.  2.82 0.418
#>  5     858.  2.82 0.421
#>  6     860.  2.82 0.424
#>  7     862.  2.83 0.426
#>  8     864.  2.83 0.429
#>  9     866.  2.83 0.432
#> 10     868.  2.84 0.434
#> # ℹ 90 more rows
…
