…
- `description`: Brief description

- `technique`: Technique (e.g., "general", "SEC/GPC")

## See also

[`measure_packs()`](https://jameshwade.github.io/measure/dev/reference/measure_packs.md),
[`register_measure_step()`](https://jameshwade.github.io/measure/dev/reference/register_measure_step.md)

## Examples

``` r
# List all steps
measure_steps()
#> # A tibble: 96 × 5
#>    step_name                    pack_name category  description        technique
#>    <chr>                        <chr>     <chr>     <chr>              <chr>    
#>  1 step_measure_input_long      measure   io        Convert long data… general  
#>  2 step_measure_input_wide      measure   io        Convert wide data… general  
#>  3 step_measure_output_long     measure   io        Convert measure t… general  
#>  4 step_measure_output_wide     measure   io        Convert measure t… general  
#>  5 step_measure_savitzky_golay  measure   smoothing Savitzky-Golay sm… general  
#>  6 step_measure_smooth_ma       measure   smoothing Moving average sm… general  
#>  7 step_measure_smooth_median   measure   smoothing Median filter smo… general  
#>  8 step_measure_smooth_gaussian measure   smoothing Gaussian smoothing general  
#>  9 step_measure_smooth_wavelet  measure   smoothing Wavelet smoothing  general  
#> 10 step_measure_filter_fourier  measure   smoothing Fourier filtering  general  
#> # ℹ 86 more rows
…
