…
# Example 1: Custom log transformation
log_transform <- function(x) {
  x$value <- log1p(x$value)
  x
}

rec <- recipe(water + fat + protein ~ ., data = meats_long) |>
  update_role(id, new_role = "id") |>
  step_measure_input_long(transmittance, location = vars(channel)) |>
  step_measure_map(log_transform) |>
  step_measure_snv() |>
  prep()

bake(rec, new_data = NULL)
#> # A tibble: 215 × 5
#>       id water   fat protein .measures
#>    <int> <dbl> <dbl>   <dbl>    <meas>
#>  1     1  60.5  22.5    16.7 [100 × 2]
#>  2     2  46    40.1    13.5 [100 × 2]
#>  3     3  71     8.4    20.5 [100 × 2]
#>  4     4  72.8   5.9    20.7 [100 × 2]
#>  5     5  58.3  25.5    15.5 [100 × 2]
#>  6     6  44    42.7    13.7 [100 × 2]
#>  7     7  44    42.7    13.7 [100 × 2]
#>  8     8  69.3  10.6    19.3 [100 × 2]
#>  9     9  61.4  19.9    17.7 [100 × 2]
#> 10    10  61.4  19.9    17.7 [100 × 2]
#> # ℹ 205 more rows
…
