Calculate Signal-to-Noise Ratio — step_measure_qc_snr • measure
…
    Examples

library(recipes)

rec <- recipe(water + fat + protein ~ ., data = meats_long) |>
  update_role(id, new_role = "id") |>
  step_measure_input_long(transmittance, location = vars(channel)) |>
  step_measure_qc_snr() |>
  prep()

bake(rec, new_data = NULL)
#> # A tibble: 215 × 7
#>       id water   fat protein .measures channel      .snr
#>    <int> <dbl> <dbl>   <dbl>    <meas> <list>      <dbl>
#>  1     1  60.5  22.5    16.7 [100 × 2] <int [100]>  277.
#>  2     2  46    40.1    13.5 [100 × 2] <int [100]>  370.
#>  3     3  71     8.4    20.5 [100 × 2] <int [100]>  291.
#>  4     4  72.8   5.9    20.7 [100 × 2] <int [100]>  278.
#>  5     5  58.3  25.5    15.5 [100 × 2] <int [100]>  271.
#>  6     6  44    42.7    13.7 [100 × 2] <int [100]>  374.
#>  7     7  44    42.7    13.7 [100 × 2] <int [100]>  374.
#>  8     8  69.3  10.6    19.3 [100 × 2] <int [100]>  255.
#>  9     9  61.4  19.9    17.7 [100 × 2] <int [100]>  310.
#> 10    10  61.4  19.9    17.7 [100 × 2] <int [100]>  303.
#> # ℹ 205 more rows
…
