…
# After reformatting:

output_rec <-
  small_rec |>
  step_measure_output_long() |>
  prep()

output_rec |> bake(new_data = small_te)
#> # A tibble: 26,510 × 5
#>    batch_id   day glucose .location .measure
#>    <chr>    <int>   <dbl>     <dbl>    <dbl>
#>  1 S_15         5    2.04         1  760094.
#>  2 S_15         5    2.04         2  779053.
#>  3 S_15         5    2.04         3  797154.
#>  4 S_15         5    2.04         4  817226.
#>  5 S_15         5    2.04         5  832725.
#>  6 S_15         5    2.04         6  840075.
#>  7 S_15         5    2.04         7  841721.
#>  8 S_15         5    2.04         8  832112.
#>  9 S_15         5    2.04         9  819494.
#> 10 S_15         5    2.04        10  799601.
#> # ℹ 26,500 more rows
```
