…
## Examples

``` r
library(recipes)

rec <- recipe(water + fat + protein ~ ., data = meats_long) |>
  update_role(id, new_role = "id") |>
  step_measure_input_long(transmittance, location = vars(channel)) |>
  step_measure_integrals(
    regions = list(low = c(1, 30), mid = c(40, 60), high = c(70, 100))
  ) |>
  prep()

bake(rec, new_data = NULL)
#> # A tibble: 215 × 8
#>       id water   fat protein .measures integral_low integral_mid integral_high
#>    <int> <dbl> <dbl>   <dbl>    <meas>        <dbl>        <dbl>         <dbl>
#>  1     1  60.5  22.5    16.7 [100 × 2]         77.1         61.8          93.6
#>  2     2  46    40.1    13.5 [100 × 2]         85.0         67.4         101. 
#>  3     3  71     8.4    20.5 [100 × 2]         76.1         59.4          85.0
#>  4     4  72.8   5.9    20.7 [100 × 2]         83.1         64.6          94.2
#>  5     5  58.3  25.5    15.5 [100 × 2]         82.8         67.6         103. 
#>  6     6  44    42.7    13.7 [100 × 2]         90.6         72.3         109. 
#>  7     7  44    42.7    13.7 [100 × 2]         90.2         72.0         107. 
#>  8     8  69.3  10.6    19.3 [100 × 2]         74.3         59.7          90.5
#>  9     9  61.4  19.9    17.7 [100 × 2]         98.3         78.8         119. 
#> 10    10  61.4  19.9    17.7 [100 × 2]        102.          82.6         124. 
#> # ℹ 205 more rows
```
