Reorganize Measurements to Two Columns — step_measure_output_long • measure
…
# After reformatting:

output_rec <-
  small_rec %>%
  step_measure_output_long() %>%
  prep()

output_rec %>% bake(new_data = small_te)
#> Warning: ! There was 1 column that was a factor when the recipe was prepped:
#> • `batch_id`
#> ℹ This may cause errors when processing new data.
#> # A tibble: 26,510 × 5
#>    batch_id   day glucose .measure .location
#>    <fct>    <int>   <dbl>    <dbl>     <int>
#>  1 S_15         5    2.04  760094.         1
#>  2 S_15         5    2.04  779053.         2
#>  3 S_15         5    2.04  797154.         3
#>  4 S_15         5    2.04  817226.         4
#>  5 S_15         5    2.04  832725.         5
#>  6 S_15         5    2.04  840075.         6
#>  7 S_15         5    2.04  841721.         7
#>  8 S_15         5    2.04  832112.         8
#>  9 S_15         5    2.04  819494.         9
#> 10 S_15         5    2.04  799601.        10
#> # ℹ 26,500 more rows
…
