Custom Baseline Correction with User-Provided Function — step_measure_baseline_custom • measure
…
# Simple polynomial baseline using a function
poly_baseline <- function(x) {
  fit <- lm(x$value ~ poly(x$location, 2))
  predict(fit)
}

rec <- recipe(water + fat + protein ~ ., data = meats_long) |>
  update_role(id, new_role = "id") |>
  step_measure_input_long(transmittance, location = vars(channel)) |>
  step_measure_baseline_custom(.fn = poly_baseline) |>
  prep()

bake(rec, new_data = NULL)
#> # A tibble: 215 × 6
#>       id water   fat protein .measures channel    
#>    <int> <dbl> <dbl>   <dbl>    <meas> <list>     
#>  1     1  60.5  22.5    16.7 [100 × 2] <int [100]>
#>  2     2  46    40.1    13.5 [100 × 2] <int [100]>
#>  3     3  71     8.4    20.5 [100 × 2] <int [100]>
#>  4     4  72.8   5.9    20.7 [100 × 2] <int [100]>
#>  5     5  58.3  25.5    15.5 [100 × 2] <int [100]>
#>  6     6  44    42.7    13.7 [100 × 2] <int [100]>
#>  7     7  44    42.7    13.7 [100 × 2] <int [100]>
#>  8     8  69.3  10.6    19.3 [100 × 2] <int [100]>
#>  9     9  61.4  19.9    17.7 [100 × 2] <int [100]>
#> 10    10  61.4  19.9    17.7 [100 × 2] <int [100]>
#> # ℹ 205 more rows
…
