…
``` r
library(recipes)

rec <- recipe(water + fat + protein ~ ., data = meats_long) |>
  update_role(id, new_role = "id") |>
  step_measure_input_long(transmittance, location = vars(channel)) |>
  step_measure_ratios(
    numerator = c(1, 30),
    denominator = c(70, 100),
    name = "low_high_ratio"
  ) |>
  prep()

bake(rec, new_data = NULL)
#> # A tibble: 215 × 7
#>       id water   fat protein .measures channel     low_high_ratio
#>    <int> <dbl> <dbl>   <dbl>    <meas> <list>               <dbl>
#>  1     1  60.5  22.5    16.7 [100 × 2] <int [100]>          0.824
#>  2     2  46    40.1    13.5 [100 × 2] <int [100]>          0.839
#>  3     3  71     8.4    20.5 [100 × 2] <int [100]>          0.896
#>  4     4  72.8   5.9    20.7 [100 × 2] <int [100]>          0.882
#>  5     5  58.3  25.5    15.5 [100 × 2] <int [100]>          0.800
#>  6     6  44    42.7    13.7 [100 × 2] <int [100]>          0.829
#>  7     7  44    42.7    13.7 [100 × 2] <int [100]>          0.841
#>  8     8  69.3  10.6    19.3 [100 × 2] <int [100]>          0.821
#>  9     9  61.4  19.9    17.7 [100 × 2] <int [100]>          0.824
#> 10    10  61.4  19.9    17.7 [100 × 2] <int [100]>          0.828
#> # ℹ 205 more rows
```
